1 10 20
100 200 125
201 210 89
900 1000 174
234565 172705 443
218879 45358 386
602768 373459 470
701588 824717 504
891528 760171 525
165392 501249 449
249072 202174 443
946170 377247 525
488079 564112 470
853076 188874 525
519268 565114 452
34419 119816 354
131226 457968 449
18847 513939 470
448124 815489 509
718344 948443 525
753818 989004 525
342398 659545 509
526386 570863 452
140541 449950 449
822369 198170 509
811282 477116 509
943654 39467 525
330801 30823 443
179418 338643 443
307309 998445 525
429706 307136 449
550583 492106 470
722538 193977 509
559046 92784 470
119849 810695 509
413639 848307 525
474961 967109 525
551266 877680 525
796812 653809 504
340214 527181 470
776597 328555 509
715164 583566 509
339247 61493 443
360025 855311 525
839527 883696 432
406153 433568 449
852197 907695 445
599603 265219 470
766912 771663 468
523302 231241 470
891834 781969 525
884596 358809 525
46979 334584 443
5629 805553 509
149635 446986 449
471016 871294 525
455102 89126 449
364438 14027 443
184206 381025 443
327310 629053 509
495792 276187 449
888497 900753 401
677564 868743 525
532711 874008 525
673321 690018 398
967614 133419 525
149940 695208 509
888045 126968 525
306927 466169 449
817953 487251 509
830219 188539 509
318427 252489 407
679986 493762 509
956856 619456 525
796076 564737 509
460318 533888 470
306552 638763 509
34177 94321 351
528019 270137 470
440975 591510 470
731685 68973 509
835586 392544 509
577257 86139 470
254993 700106 509
796844 401012 509
938885 316119 525
704518 774274 504
968409 648912 525
658305 341768 509
733031 195143 509
201347 401009 443
928173 952750 507
838217 448242 525
964866 194910 525
692584 758504 504
212850 882204 525
961251 747221 525
995006 755564 525
752940 745436 393
318490 244045 407
361386 487437 449
515680 637859 509
877682 620465 525
14036 91506 351
600 679 145
875 798 179
158 744 171
330 735 171
98 2 119
97 567 144
207 652 145
934 518 179
306 733 171
844 176 171
294 81 128
112 955 179
635 401 142
460 78 144
709 902 179
972 897 174
63 791 171
205 501 144
344 329 126
944 749 179
554 809 171
326 439 144
276 852 171
306 59 128
312 84 128
60 825 171
26 254 128
246 266 123
229 468 144
950 674 179
516 983 179
270 890 179
696 181 145
564 493 137
449 89 144
323 814 171
92 572 144
491 812 171
680 938 179
326 85 131
417 652 145
769 549 171
43 507 144
262 341 144
305 479 144
670 51 145
183 513 144
149 388 144
198 88 125
574 806 171
620 981 179
645 133 144
641 727 171
406 380 121
701 851 171
838 536 171
203 220 115
942 641 179
407 5 144
917 711 179
50 820 171
998 95 179
433 587 142
265 700 145
248 858 171
967 85 179
248 904 179
46 969 179
140 851 171
128 970 179
957 127 179
55 366 144
852 818 135
810 5 171
721 636 171
815 840 135
977 968 143
675 401 145
820 577 171
406 788 171
742 11 171
257 615 144
476 486 98
779 909 179
489 301 144
404 104 144
291 17 128
904 543 179
330 616 142
255 809 171
783 539 171
556 555 44
754 370 171
350 60 144
243 6 128
665 730 171
536 597 137
256 734 171
533 833 171
816 407 171
